{
    "swagger": "2.0",
    "info": {
        "title": "UserAuth group swagger UI",
        "contact": {}
    },
    "basePath": "/user",
    "paths": {
        "/login": {
            "post": {
                "description": "This api logs  user in",
                "consumes": [
                    "application/json"
                ],
                "produces": [
                    "application/json"
                ],
                "tags": [
                    "USER"
                ],
                "summary": "Login USER",
                "parameters": [
                    {
                        "description": "LoginReq",
                        "name": "data",
                        "in": "body",
                        "required": true,
                        "schema": {
                            "$ref": "#/definitions/auth_service.LoginReq"
                        }
                    }
                ],
                "responses": {
                    "201": {
                        "description": "Created",
                        "schema": {
                            "$ref": "#/definitions/auth_service.Token"
                        }
                    },
                    "400": {
                        "description": "Bad Request",
                        "schema": {
                            "type": "string"
                        }
                    }
                }
            }
        },
        "/register": {
            "post": {
                "description": "This api registers user",
                "consumes": [
                    "application/json"
                ],
                "produces": [
                    "application/json"
                ],
                "tags": [
                    "USER"
                ],
                "summary": "REGISTER USER",
                "parameters": [
                    {
                        "description": "User",
                        "name": "data",
                        "in": "body",
                        "required": true,
                        "schema": {
                            "$ref": "#/definitions/auth_service.UserModel"
                        }
                    }
                ],
                "responses": {
                    "201": {
                        "description": "successfully registered",
                        "schema": {
                            "type": "string"
                        }
                    },
                    "400": {
                        "description": "Bad Request",
                        "schema": {
                            "type": "string"
                        }
                    }
                }
            }
        },
        "/user/info": {
            "get": {
                "security": [
                    {
                        "BearerAuth": []
                    }
                ],
                "description": "This api Gets User info",
                "consumes": [
                    "application/json"
                ],
                "produces": [
                    "application/json"
                ],
                "tags": [
                    "User"
                ],
                "summary": "Gets User info",
                "responses": {
                    "200": {
                        "description": "OK",
                        "schema": {
                            "$ref": "#/definitions/auth_service.UserCreate"
                        }
                    },
                    "400": {
                        "description": "Bad Request",
                        "schema": {
                            "type": "string"
                        }
                    }
                }
            }
        }
    },
    "definitions": {
        "auth_service.LoginReq": {
            "type": "object",
            "properties": {
                "Password": {
                    "type": "string"
                },
                "Username": {
                    "type": "string"
                }
            }
        },
        "auth_service.Token": {
            "type": "object",
            "properties": {
                "AccessToken": {
                    "type": "string"
                }
            }
        },
        "auth_service.UserCreate": {
            "type": "object",
            "properties": {
                "Email": {
                    "type": "string"
                },
                "Password": {
                    "type": "string"
                },
                "User_id": {
                    "type": "string"
                },
                "Username": {
                    "type": "string"
                }
            }
        },
        "auth_service.UserModel": {
            "type": "object",
            "properties": {
                "Email": {
                    "type": "string"
                },
                "Password": {
                    "type": "string"
                },
                "Username": {
                    "type": "string"
                }
            }
        }
    },
    "securityDefinitions": {
        "BearerAuth": {
            "type": "apiKey",
            "name": "Authorization",
            "in": "header"
        }
    }
}